{
  "nodeFoldStates": [
    "945w71uFBEra5BciMsrezF",
    "8aeXKEsx5P/qTVjfyD8+Du",
    "6ewVF3AXJKJKzc1XEEv7c9",
    "abspH8xSZKKrvB8zI/9zAl",
    "b6CBteWeBFSoOVJdKVpNl6",
    "21GKR+KbxOW58r56FKLONO",
    "d3OdQFphdEFZ/NAqOikKWi",
    "67doE3DfxCJ6RYuyB1Amzf"
  ]
}
