{
  "9836134e-b892-4283-b6b2-78b5acf3ed45": {
    "asset": 1614265966487,
    "meta": 1577083950000,
    "relativePath": "effects"
  },
  "f8e6b000-5643-4b86-9080-aa680ce1f599": {
    "asset": 1614265863244,
    "meta": 1577083950000,
    "relativePath": "image"
  },
  "5c3eedba-6c41-4c0c-9ba7-d91f813cbd1c": {
    "asset": 1614265863265,
    "meta": 1577083950000,
    "relativePath": "materials"
  },
  "fc09f9bd-2cce-4605-b630-8145ef809ed6": {
    "asset": 1614265863285,
    "meta": 1577083950000,
    "relativePath": "misc"
  },
  "db019bf7-f71c-4111-98cf-918ea180cb48": {
    "asset": 1614265863410,
    "meta": 1577083950000,
    "relativePath": "model"
  },
  "e39e96e6-6f6e-413f-bcf1-ac7679bb648a": {
    "asset": 1614265863390,
    "meta": 1577083950000,
    "relativePath": "model\\prefab"
  },
  "f6e6dd15-71d1-4ffe-ace7-24fd39942c05": {
    "asset": 1614265863443,
    "meta": 1577083950000,
    "relativePath": "obsolete"
  },
  "f743d2b6-b7ea-4c14-a55b-547ed4d0a045": {
    "asset": 1614265863476,
    "meta": 1577083950000,
    "relativePath": "particle"
  },
  "ae6c6c98-11e4-452f-8758-75f5c6a56e83": {
    "asset": 1614265966550,
    "meta": 1577083950000,
    "relativePath": "prefab"
  },
  "a3ee0214-b432-4865-9666-4a3211814282": {
    "asset": 1614265966543,
    "meta": 1577083950000,
    "relativePath": "prefab\\light"
  },
  "d8afc78c-4eac-4a9f-83dd-67bc70344d33": {
    "asset": 1614265864013,
    "meta": 1577083950000,
    "relativePath": "resources"
  },
  "294c1663-4adf-4a1e-a795-53808011a38a": {
    "asset": 1614265863836,
    "meta": 1577083950000,
    "relativePath": "resources\\effects"
  },
  "bbee2217-c261-49bd-a8ce-708d6bcc3500": {
    "asset": 1614265863984,
    "meta": 1577083950000,
    "relativePath": "resources\\materials"
  },
  "9c85cc10-0d77-4480-86a2-f81016d0f6d4": {
    "asset": 1620718478529,
    "meta": 1620718478526,
    "relativePath": "Atlas"
  },
  "8652ef5c-649f-4f3f-8a35-bd735503d46e": {
    "asset": 1620718478631,
    "meta": 1620718478630,
    "relativePath": "Scripts"
  },
  "48192215-9c53-4ecb-973f-72e9b6cf53e2": {
    "asset": 1620718478624,
    "meta": 1620718478618,
    "relativePath": "Pictures"
  },
  "39c0c26f-77fd-4750-991b-013923cab544": {
    "asset": 1620718478525,
    "meta": 1620718478519,
    "relativePath": "Animations"
  },
  "979f1373-61a5-49aa-b7d3-9b0e5d22070e": {
    "asset": 1620718478628,
    "meta": 1620718478625,
    "relativePath": "Prefabs"
  },
  "79af84ff-74aa-4357-b7e7-81c67143a51e": {
    "asset": 1620718478614,
    "meta": 1620718478529,
    "relativePath": "Audios"
  },
  "d75da773-157f-42b0-b92a-336118ad8b5f": {
    "asset": 1620718478610,
    "meta": 1620718526322,
    "relativePath": "Audios\\fake.wav"
  },
  "19bafc94-6bdd-4473-b17b-13c8ce626aa2": {
    "asset": 1620718478612,
    "meta": 1620718526372,
    "relativePath": "Audios\\normal.wav"
  },
  "6c796579-7045-4b0e-9857-c0dbf52026db": {
    "asset": 1620718478613,
    "meta": 1620718526363,
    "relativePath": "Audios\\pause.wav"
  },
  "fa18b8ec-97a3-4381-b037-28a5781d0c54": {
    "asset": 1620718478606,
    "meta": 1620718526281,
    "relativePath": "Audios\\conveyor.wav"
  },
  "100f89ac-ba0b-4304-88ba-c420d98581b3": {
    "asset": 1620718478611,
    "meta": 1620718526348,
    "relativePath": "Audios\\nails.wav"
  },
  "e956e1e2-f8a8-4aca-bf90-37e003f912a6": {
    "asset": 1620718478614,
    "meta": 1620718526406,
    "relativePath": "Audios\\trampoline.wav"
  },
  "f888a7db-6ffc-496b-933a-528b52293b44": {
    "asset": 1620718478609,
    "meta": 1620718526302,
    "relativePath": "Audios\\die.wav"
  },
  "9400aba0-68b9-469e-8fe1-987b1688f4a0": {
    "asset": 1620718478604,
    "meta": 1620718526339,
    "relativePath": "Audios\\BGM.wav"
  },
  "2270658e-17a0-4a3c-a71e-cf66e1f75930": {
    "asset": 1620718478619,
    "meta": 1620718526456,
    "relativePath": "Pictures\\background.png"
  },
  "a5554cd6-b5d4-4bfe-a74d-ce328b01ce68": {
    "asset": 1620718478528,
    "meta": 1620718527216,
    "relativePath": "Atlas\\player.plist"
  },
  "ba5a1cbe-e748-4cda-994e-bf8c34a1df3a": {
    "asset": 1620718478529,
    "meta": 1620718526254,
    "relativePath": "Atlas\\player.png"
  },
  "2139fdd5-3abf-4333-b308-138c2170fa09": {
    "asset": 1620718478527,
    "meta": 1620718527023,
    "relativePath": "Atlas\\platform.plist"
  },
  "2a6b53f3-125f-4b32-906e-5e4adac3574d": {
    "asset": 1620718478528,
    "meta": 1620718526260,
    "relativePath": "Atlas\\platform.png"
  },
  "3c177584-12db-4a6b-8ca4-29aa81ba6c56": {
    "asset": 1620718478618,
    "meta": 1620718478615,
    "relativePath": "Fonts"
  },
  "fdf04a11-cf2c-47d5-999d-5642ef7b3cfe": {
    "asset": 1620718478615,
    "meta": 1620718527232,
    "relativePath": "Fonts\\font_big.fnt"
  },
  "5ad27364-230e-4827-bc9d-45eebe0ae8be": {
    "asset": 1620718478616,
    "meta": 1620718526423,
    "relativePath": "Fonts\\font_big.png"
  },
  "9ad07209-9031-45be-abb5-b5972bb240dc": {
    "asset": 1620718478617,
    "meta": 1620718527238,
    "relativePath": "Fonts\\font_small.fnt"
  },
  "d3504f8a-03a5-463b-8e7c-14b05308ee48": {
    "asset": 1620718478617,
    "meta": 1620718526447,
    "relativePath": "Fonts\\font_small.png"
  },
  "c7c941a2-0dba-45ea-abbd-aff735db03ed": {
    "asset": 1620718478621,
    "meta": 1620718526488,
    "relativePath": "Pictures\\demo.PNG"
  },
  "0b2c510c-a14d-4f95-9369-888bf4b45f64": {
    "asset": 1620718478622,
    "meta": 1620718526523,
    "relativePath": "Pictures\\panel.png"
  },
  "cbb7afa4-47a3-4528-9e31-9054dc40633c": {
    "asset": 1620718478619,
    "meta": 1620718526558,
    "relativePath": "Pictures\\UI_BG.png"
  },
  "ccc42255-7ba8-4c1e-93e4-a61b8a458f61": {
    "asset": 1620718478623,
    "meta": 1620718526514,
    "relativePath": "Pictures\\pause.png"
  },
  "4d375733-ce18-4003-85c7-00ceb7de3570": {
    "asset": 1620718478624,
    "meta": 1620718526598,
    "relativePath": "Pictures\\wall.png"
  },
  "04cee87f-c06e-4ee4-82a7-dc1b33311941": {
    "asset": 1620726042025,
    "meta": 1620726042055,
    "relativePath": "Scenes\\game.fire"
  },
  "ce290d8d-5263-421d-8f5e-00b8b915c394": {
    "asset": 1620718478629,
    "meta": 1620718478628,
    "relativePath": "Scenes"
  },
  "b3be0661-853a-4610-afa3-c0eeb8fd4cab": {
    "asset": 1620718478620,
    "meta": 1620718526479,
    "relativePath": "Pictures\\ceiling.png"
  },
  "12c4667e-c474-4fdb-a24d-da95dda2b221": {
    "asset": 1620718478525,
    "meta": 1620718526229,
    "relativePath": "Animations\\walk.anim"
  },
  "acec14dc-53bb-4eb0-ac93-cf2db598e851": {
    "asset": 1620718478522,
    "meta": 1620718526182,
    "relativePath": "Animations\\fall_side.anim"
  },
  "8ae3400e-3405-4a4f-b009-f2d5a5c2d264": {
    "asset": 1620718478521,
    "meta": 1620718526160,
    "relativePath": "Animations\\fall_front.anim"
  },
  "ab428d85-ac5d-4835-9d54-4e9e8b1a3b02": {
    "asset": 1620718478525,
    "meta": 1620718526209,
    "relativePath": "Animations\\walk_hurt.anim"
  },
  "d1dab4f9-80d7-4c08-b8e9-8b9e22141b4e": {
    "asset": 1620718478522,
    "meta": 1620718526139,
    "relativePath": "Animations\\fall_front_hurt.anim"
  },
  "7a669c94-6fff-43fd-80a7-c640cb432a77": {
    "asset": 1620718478523,
    "meta": 1620718526173,
    "relativePath": "Animations\\fall_side_hurt.anim"
  },
  "32a36ad2-0a95-437b-a9b5-f79067581843": {
    "asset": 1620718478523,
    "meta": 1620718526191,
    "relativePath": "Animations\\idle_hurt.anim"
  },
  "3e660b90-c5b6-4887-912c-c7e23926c60f": {
    "asset": 1620718478520,
    "meta": 1620718526124,
    "relativePath": "Animations\\fakePlatform.anim"
  },
  "1dc1c633-01b3-4007-8f88-5b9ab7a492d5": {
    "asset": 1620718478520,
    "meta": 1620718526116,
    "relativePath": "Animations\\ConveyorPlatform.anim"
  },
  "7b5a410d-0672-49b7-a88a-bf4521475a7f": {
    "asset": 1620718478524,
    "meta": 1620718526201,
    "relativePath": "Animations\\trampolinePlatform.anim"
  },
  "1db19d03-bd09-4b87-bf22-54e92c16b75a": {
    "asset": 1620718478625,
    "meta": 1620718526574,
    "relativePath": "Prefabs\\Conveyor.prefab"
  },
  "deb167c6-6538-46ab-a689-15714202c5fe": {
    "asset": 1620718478627,
    "meta": 1620718526608,
    "relativePath": "Prefabs\\Nails.prefab"
  },
  "a49aa1d2-6482-4b37-847c-6a6b75ecf02f": {
    "asset": 1620718478626,
    "meta": 1620718526589,
    "relativePath": "Prefabs\\Fake.prefab"
  },
  "ec024c71-a539-4d11-9f8c-a973ed08b3ef": {
    "asset": 1620718478627,
    "meta": 1620718526618,
    "relativePath": "Prefabs\\Normal.prefab"
  },
  "bd7830a4-cf97-411e-b2c8-36b479d93735": {
    "asset": 1620718478628,
    "meta": 1620718526629,
    "relativePath": "Prefabs\\Trampoline.prefab"
  },
  "50716806-2c56-4a21-802a-2d5ecde367b0": {
    "asset": 1620718478624,
    "meta": 1620718526553,
    "relativePath": "Pictures\\start.png"
  },
  "430eccbf-bf2c-4e6e-8c0c-884bbb487f32": {
    "asset": 1577083950000,
    "meta": 1620718520717,
    "relativePath": "effects\\__builtin-editor-gizmo-line.effect"
  },
  "6c5cf6e1-b044-4eac-9431-835644d57381": {
    "asset": 1577083950000,
    "meta": 1620718520753,
    "relativePath": "effects\\__builtin-editor-gizmo-unlit.effect"
  },
  "115286d1-2e10-49ee-aab4-341583f607e8": {
    "asset": 1577083950000,
    "meta": 1620718520835,
    "relativePath": "effects\\__builtin-editor-gizmo.effect"
  },
  "abc2cb62-7852-4525-a90d-d474487b88f2": {
    "asset": 1577083950000,
    "meta": 1620718520889,
    "relativePath": "effects\\builtin-phong.effect"
  },
  "e2f00085-c597-422d-9759-52c360279106": {
    "asset": 1577083950000,
    "meta": 1620718520894,
    "relativePath": "effects\\builtin-toon.effect"
  },
  "71561142-4c83-4933-afca-cb7a17f67053": {
    "asset": 1577083950000,
    "meta": 1620718521305,
    "relativePath": "image\\default_btn_disabled.png"
  },
  "e851e89b-faa2-4484-bea6-5c01dd9f06e2": {
    "asset": 1577083950000,
    "meta": 1620718521299,
    "relativePath": "image\\default_btn_normal.png"
  },
  "b43ff3c2-02bb-4874-81f7-f2dea6970f18": {
    "asset": 1577083950000,
    "meta": 1620718521337,
    "relativePath": "image\\default_btn_pressed.png"
  },
  "edd215b9-2796-4a05-aaf5-81f96c9281ce": {
    "asset": 1577083950000,
    "meta": 1620718521335,
    "relativePath": "image\\default_editbox_bg.png"
  },
  "d81ec8ad-247c-4e62-aa3c-d35c4193c7af": {
    "asset": 1577083950000,
    "meta": 1620718521359,
    "relativePath": "image\\default_panel.png"
  },
  "99170b0b-d210-46f1-b213-7d9e3f23098a": {
    "asset": 1577083950000,
    "meta": 1620718521365,
    "relativePath": "image\\default_progressbar_bg.png"
  },
  "cfef78f1-c8df-49b7-8ed0-4c953ace2621": {
    "asset": 1577083950000,
    "meta": 1620718521387,
    "relativePath": "image\\default_progressbar.png"
  },
  "567dcd80-8bf4-4535-8a5a-313f1caf078a": {
    "asset": 1577083950000,
    "meta": 1620718521393,
    "relativePath": "image\\default_radio_button_off.png"
  },
  "9d60001f-b5f4-4726-a629-2659e3ded0b8": {
    "asset": 1577083950000,
    "meta": 1620718521416,
    "relativePath": "image\\default_radio_button_on.png"
  },
  "4bab67cb-18e6-4099-b840-355f0473f890": {
    "asset": 1577083950000,
    "meta": 1620718521425,
    "relativePath": "image\\default_scrollbar_bg.png"
  },
  "d6d3ca85-4681-47c1-b5dd-d036a9d39ea2": {
    "asset": 1577083950000,
    "meta": 1620718521456,
    "relativePath": "image\\default_scrollbar_vertical.png"
  },
  "617323dd-11f4-4dd3-8eec-0caf6b3b45b9": {
    "asset": 1577083950000,
    "meta": 1620718521450,
    "relativePath": "image\\default_scrollbar_vertical_bg.png"
  },
  "0291c134-b3da-4098-b7b5-e397edbe947f": {
    "asset": 1577083950000,
    "meta": 1620718521488,
    "relativePath": "image\\default_scrollbar.png"
  },
  "0275e94c-56a7-410f-bd1a-fc7483f7d14a": {
    "asset": 1577083950000,
    "meta": 1620718521481,
    "relativePath": "image\\default_sprite_splash.png"
  },
  "6e056173-d285-473c-b206-40a7fff5386e": {
    "asset": 1577083950000,
    "meta": 1620718521520,
    "relativePath": "image\\default_sprite.png"
  },
  "73a0903d-d80e-4e3c-aa67-f999543c08f5": {
    "asset": 1577083950000,
    "meta": 1620718521514,
    "relativePath": "image\\default_toggle_checkmark.png"
  },
  "c25b9d50-c8fc-4d27-beeb-6e7c1f2e5c0f": {
    "asset": 1577083950000,
    "meta": 1620718521550,
    "relativePath": "image\\default_toggle_disabled.png"
  },
  "d29077ba-1627-4a72-9579-7b56a235340c": {
    "asset": 1577083950000,
    "meta": 1620718521544,
    "relativePath": "image\\default_toggle_normal.png"
  },
  "c4480a0a-6ac5-443f-8b40-361a14257fc8": {
    "asset": 1577083950000,
    "meta": 1620718521567,
    "relativePath": "materials\\builtin-phong.mtl"
  },
  "b181c1e4-0a72-4a91-bfb0-ae6f36ca60bd": {
    "asset": 1577083950000,
    "meta": 1620718521579,
    "relativePath": "image\\default_toggle_pressed.png"
  },
  "a87cc147-01b2-43f8-8e42-a7ca90b0c757": {
    "asset": 1614344742624,
    "meta": 1620718521597,
    "relativePath": "model\\prefab\\box.prefab"
  },
  "2be36297-9abb-4fee-8049-9ed5e271da8a": {
    "asset": 1577083950000,
    "meta": 1620718521599,
    "relativePath": "misc\\default_video.mp4"
  },
  "fe1417b6-fe6b-46a4-ae7c-9fd331f33a2a": {
    "asset": 1614344742629,
    "meta": 1620718521609,
    "relativePath": "model\\prefab\\capsule.prefab"
  },
  "b5fc2cf2-7942-483d-be1f-bbeadc4714ad": {
    "asset": 1614344742634,
    "meta": 1620718521615,
    "relativePath": "model\\prefab\\cone.prefab"
  },
  "1c5e4038-953a-44c2-b620-0bbfc6170477": {
    "asset": 1614344742637,
    "meta": 1620718521623,
    "relativePath": "model\\prefab\\cylinder.prefab"
  },
  "3f376125-a699-40ca-ad05-04d662eaa1f2": {
    "asset": 1614344742640,
    "meta": 1620718521630,
    "relativePath": "model\\prefab\\plane.prefab"
  },
  "6c9ef10d-b479-420b-bfe6-39cdda6a8ae0": {
    "asset": 1614344742643,
    "meta": 1620718521635,
    "relativePath": "model\\prefab\\quad.prefab"
  },
  "2d9a4b85-b0ab-4c46-84c5-18f393ab2058": {
    "asset": 1614344742645,
    "meta": 1620718521643,
    "relativePath": "model\\prefab\\sphere.prefab"
  },
  "de510076-056b-484f-b94c-83bef217d0e1": {
    "asset": 1614344742995,
    "meta": 1620718521698,
    "relativePath": "model\\prefab\\torus.prefab"
  },
  "8a96b965-2dc0-4e03-aa90-3b79cb93b5b4": {
    "asset": 1577083950000,
    "meta": 1620718521721,
    "relativePath": "obsolete\\atom.png"
  },
  "b8223619-7e38-47c4-841f-9160c232495a": {
    "asset": 1577083950000,
    "meta": 1620718522286,
    "relativePath": "obsolete\\atom.plist"
  },
  "d0a82d39-bede-46c4-b698-c81ff0dedfff": {
    "asset": 1577083950000,
    "meta": 1620718521739,
    "relativePath": "particle\\atom.png"
  },
  "b2687ac4-099e-403c-a192-ff477686f4f5": {
    "asset": 1577083950000,
    "meta": 1620718522285,
    "relativePath": "particle\\atom.plist"
  },
  "972b9a4d-47ee-4c74-b5c3-61d8a69bc29f": {
    "asset": 1614344743058,
    "meta": 1620718521753,
    "relativePath": "prefab\\button.prefab"
  },
  "897ef7a1-4860-4f64-968d-f5924b18668a": {
    "asset": 1614344743064,
    "meta": 1620718521767,
    "relativePath": "prefab\\camera.prefab"
  },
  "2c937608-2562-40ea-b264-7395df6f0cea": {
    "asset": 1614344743069,
    "meta": 1620718521790,
    "relativePath": "prefab\\canvas.prefab"
  },
  "61aeb05b-3b32-452b-8eed-2b76deeed554": {
    "asset": 1614344743076,
    "meta": 1620718521815,
    "relativePath": "prefab\\editbox.prefab"
  },
  "27756ebb-3d33-44b0-9b96-e858fadd4dd4": {
    "asset": 1614344743096,
    "meta": 1620718521837,
    "relativePath": "prefab\\label.prefab"
  },
  "785a442c-3ceb-45be-a46e-7317f625f3b9": {
    "asset": 1614344743102,
    "meta": 1620718521850,
    "relativePath": "prefab\\layout.prefab"
  },
  "61906da3-7003-4bda-9abc-5769c76faee4": {
    "asset": 1614344743161,
    "meta": 1620718521893,
    "relativePath": "prefab\\light\\ambient.prefab"
  },
  "ddb99b39-7004-47cd-9705-751905c43c46": {
    "asset": 1614344743190,
    "meta": 1620718521908,
    "relativePath": "prefab\\light\\directional.prefab"
  },
  "0cf30284-9073-46bc-9eba-e62b69dbbff3": {
    "asset": 1614344743189,
    "meta": 1620718521919,
    "relativePath": "prefab\\light\\point.prefab"
  },
  "f5331fd2-bf42-4ee3-a3fd-3e1657600eff": {
    "asset": 1614344743229,
    "meta": 1620718521934,
    "relativePath": "prefab\\light\\spot.prefab"
  },
  "ca8401fe-ad6e-41a8-bd46-8e3e4e9945be": {
    "asset": 1614344743233,
    "meta": 1620718521953,
    "relativePath": "prefab\\pageview.prefab"
  },
  "cd33edea-55f5-46c2-958d-357a01384a36": {
    "asset": 1614344743273,
    "meta": 1620718521959,
    "relativePath": "prefab\\particlesystem.prefab"
  },
  "5965ffac-69da-4b55-bcde-9225d0613c28": {
    "asset": 1614344743271,
    "meta": 1620718521967,
    "relativePath": "prefab\\progressBar.prefab"
  },
  "4a37dd57-78cd-4cec-aad4-f11a73d12b63": {
    "asset": 1614344743310,
    "meta": 1620718521973,
    "relativePath": "prefab\\richtext.prefab"
  },
  "32044bd2-481f-4cf1-a656-e2b2fb1594eb": {
    "asset": 1614344743314,
    "meta": 1620718521982,
    "relativePath": "prefab\\scrollview.prefab"
  },
  "0004d1cf-a0ad-47d8-ab17-34d3db9d35a3": {
    "asset": 1614344743352,
    "meta": 1620718521989,
    "relativePath": "prefab\\slider.prefab"
  },
  "1f55e3be-b89b-4b79-88de-47fd31018044": {
    "asset": 1614344743350,
    "meta": 1620718522001,
    "relativePath": "prefab\\sprite_splash.prefab"
  },
  "96083d03-c332-4a3f-9386-d03e2d19e8ee": {
    "asset": 1614344743356,
    "meta": 1620718522005,
    "relativePath": "prefab\\sprite.prefab"
  },
  "7de03a80-4457-438d-95a7-3e7cdffd6086": {
    "asset": 1614344743394,
    "meta": 1620718522014,
    "relativePath": "prefab\\tiledmap.prefab"
  },
  "0e42ba95-1fa1-46aa-b2cf-143cd1bcee2c": {
    "asset": 1614344743395,
    "meta": 1620718522020,
    "relativePath": "prefab\\tiledtile.prefab"
  },
  "0d784963-d024-4ea6-a7db-03be0ad63010": {
    "asset": 1614344743435,
    "meta": 1620718522027,
    "relativePath": "prefab\\toggle.prefab"
  },
  "bf0a434c-84dd-4a8e-a08a-7a36f180cc75": {
    "asset": 1614344743438,
    "meta": 1620718522035,
    "relativePath": "prefab\\toggleContainer.prefab"
  },
  "954fec8b-cd16-4bb9-a3b7-7719660e7558": {
    "asset": 1577083950000,
    "meta": 1620718525795,
    "relativePath": "model\\primitives.fbx"
  },
  "d1b8be49-b0a0-435c-83b7-552bed4bbe35": {
    "asset": 1614344743478,
    "meta": 1620718522043,
    "relativePath": "prefab\\toggleGroup.prefab"
  },
  "232d2782-c4bd-4bb4-9e01-909f03d6d3b9": {
    "asset": 1614344743475,
    "meta": 1620718522053,
    "relativePath": "prefab\\videoplayer.prefab"
  },
  "144c3297-af63-49e8-b8ef-1cfa29b3be28": {
    "asset": 1577083950000,
    "meta": 1620718522072,
    "relativePath": "resources\\effects\\builtin-2d-gray-sprite.effect"
  },
  "8c5001fd-07ee-4a4b-a8a0-63e15195e94d": {
    "asset": 1614344743613,
    "meta": 1620718522099,
    "relativePath": "prefab\\webview.prefab"
  },
  "0e93aeaa-0b53-4e40-b8e0-6268b4e07bd7": {
    "asset": 1577083950000,
    "meta": 1620718522118,
    "relativePath": "resources\\effects\\builtin-2d-spine.effect"
  },
  "2874f8dd-416c-4440-81b7-555975426e93": {
    "asset": 1577083950000,
    "meta": 1620718522137,
    "relativePath": "resources\\effects\\builtin-2d-sprite.effect"
  },
  "c0040c95-c57f-49cd-9cbc-12316b73d0d4": {
    "asset": 1577083950000,
    "meta": 1620718522161,
    "relativePath": "resources\\effects\\builtin-clear-stencil.effect"
  },
  "79eafaef-b7ef-45d9-9c3f-591dc836fc7a": {
    "asset": 1577083950000,
    "meta": 1620718522187,
    "relativePath": "resources\\effects\\builtin-unlit-transparent.effect"
  },
  "6d91e591-4ce0-465c-809f-610ec95019c6": {
    "asset": 1577083950000,
    "meta": 1620718522193,
    "relativePath": "resources\\effects\\builtin-unlit.effect"
  },
  "6f801092-0c37-4f30-89ef-c8d960825b36": {
    "asset": 1577083950000,
    "meta": 1620718522208,
    "relativePath": "resources\\materials\\builtin-2d-base.mtl"
  },
  "3a7bb79f-32fd-422e-ada2-96f518fed422": {
    "asset": 1577083950000,
    "meta": 1620718522214,
    "relativePath": "resources\\materials\\builtin-2d-gray-sprite.mtl"
  },
  "7afd064b-113f-480e-b793-8817d19f63c3": {
    "asset": 1577083950000,
    "meta": 1620718522222,
    "relativePath": "resources\\materials\\builtin-2d-spine.mtl"
  },
  "eca5d2f2-8ef6-41c2-bbe6-f9c79d09c432": {
    "asset": 1577083950000,
    "meta": 1620718522228,
    "relativePath": "resources\\materials\\builtin-2d-sprite.mtl"
  },
  "cf7e0bb8-a81c-44a9-ad79-d28d43991032": {
    "asset": 1577083950000,
    "meta": 1620718522236,
    "relativePath": "resources\\materials\\builtin-clear-stencil.mtl"
  },
  "2a296057-247c-4a1c-bbeb-0548b6c98650": {
    "asset": 1577083950000,
    "meta": 1620718522242,
    "relativePath": "resources\\materials\\builtin-unlit.mtl"
  },
  "9eafaea8-25f8-4bd9-8693-d88acc93c8cf": {
    "asset": 1620720460293,
    "meta": 1620720469795,
    "relativePath": "Scripts\\GameMgr.ts"
  },
  "3cd2f165-801a-4f21-834d-fc62364b8dbe": {
    "asset": 1620724460083,
    "meta": 1620724461174,
    "relativePath": "Scripts\\Player.ts"
  },
  "a3e6d067-7bf2-48e2-bb1c-4e33d9f21c85": {
    "asset": 1620724505839,
    "meta": 1620724507287,
    "relativePath": "Scripts\\Platform.ts"
  }
}